/* XPM */
static char * title_3_active_xpm[] = {
"2 26 3 1",
" 	c None",
".	c #303641",
"+	c #191919",
"..",
"++",
"++",
"++",
"++",
"++",
"++",
"++",
"++",
"++",
"++",
"++",
"++",
"++",
"++",
"++",
"++",
"++",
"++",
"++",
"++",
"++",
"++",
"++",
"++",
"++"};
